# Sub-functions

    # A tibble: 169 x 9
       seqno   row   col slope_pct slope_deg aspect  prof  plan buffer
       <int> <dbl> <dbl>     <dbl>     <dbl>  <dbl> <dbl> <dbl> <lgl> 
     1     1     1     1        NA        NA     NA    NA    NA TRUE  
     2     2     1     2        NA        NA     NA    NA    NA TRUE  
     3     3     1     3        NA        NA     NA    NA    NA TRUE  
     4     4     1     4        NA        NA     NA    NA    NA TRUE  
     5     5     1     5        NA        NA     NA    NA    NA TRUE  
     6     6     1     6        NA        NA     NA    NA    NA TRUE  
     7     7     1     7        NA        NA     NA    NA    NA TRUE  
     8     8     1     8        NA        NA     NA    NA    NA TRUE  
     9     9     1     9        NA        NA     NA    NA    NA TRUE  
    10    10     1    10        NA        NA     NA    NA    NA TRUE  
    # ... with 159 more rows
…
---

    # A tibble: 169 x 43
       seqno str_row str_col str_elev  z2st  n2st pit_seqno pit_row pit_col pit_elev
       <int>   <dbl>   <dbl>    <dbl> <dbl> <dbl>     <int>   <dbl>   <dbl>    <dbl>
     1     1      NA      NA       NA    NA    NA        NA      NA      NA       NA
     2     2      NA      NA       NA    NA    NA        NA      NA      NA       NA
     3     3      NA      NA       NA    NA    NA        NA      NA      NA       NA
     4     4      NA      NA       NA    NA    NA        NA      NA      NA       NA
     5     5      NA      NA       NA    NA    NA        NA      NA      NA       NA
     6     6      NA      NA       NA    NA    NA        NA      NA      NA       NA
     7     7      NA      NA       NA    NA    NA        NA      NA      NA       NA
     8     8      NA      NA       NA    NA    NA        NA      NA      NA       NA
     9     9      NA      NA       NA    NA    NA        NA      NA      NA       NA
    10    10      NA      NA       NA    NA    NA        NA      NA      NA       NA
    # ... with 159 more rows, and 33 more variables: z2pit <dbl>, n2pit <dbl>,
    #   cr_row <dbl>, cr_col <dbl>, cr_elev <dbl>, z2cr <dbl>, n2cr <dbl>,
    #   peak_seqno <int>, peak_row <dbl>, peak_col <dbl>, peak_elev <dbl>,
    #   z2peak <dbl>, n2peak <dbl>, elev <dbl>, row <dbl>, col <dbl>, buffer <lgl>,
    #   fill_shed <dbl>, min_elev <dbl>, max_elev <dbl>, elev_range <dbl>,
    #   max_elev_shed <dbl>, zpit2peak <dbl>, zcr2st <dbl>, zcr2pit <dbl>,
    #   z2top <dbl>, ztop2pit <dbl>, ncr2st <dbl>, pctz2top <dbl>, pctz2st <dbl>,
    #   pctz2pit <dbl>, pctn2st <dbl>, pmin2max <dbl>

---

    # A tibble: 169 x 51
       seqno str_row str_col str_elev  z2st  n2st pit_seqno pit_row pit_col pit_elev
       <int>   <dbl>   <dbl>    <dbl> <dbl> <dbl>     <int>   <dbl>   <dbl>    <dbl>
     1     1      NA      NA       NA    NA    NA        NA      NA      NA       NA
     2     2      NA      NA       NA    NA    NA        NA      NA      NA       NA
     3     3      NA      NA       NA    NA    NA        NA      NA      NA       NA
     4     4      NA      NA       NA    NA    NA        NA      NA      NA       NA
     5     5      NA      NA       NA    NA    NA        NA      NA      NA       NA
     6     6      NA      NA       NA    NA    NA        NA      NA      NA       NA
     7     7      NA      NA       NA    NA    NA        NA      NA      NA       NA
     8     8      NA      NA       NA    NA    NA        NA      NA      NA       NA
     9     9      NA      NA       NA    NA    NA        NA      NA      NA       NA
    10    10      NA      NA       NA    NA    NA        NA      NA      NA       NA
    # ... with 159 more rows, and 41 more variables: z2pit <dbl>, n2pit <dbl>,
    #   cr_row <dbl>, cr_col <dbl>, cr_elev <dbl>, z2cr <dbl>, n2cr <dbl>,
    #   peak_seqno <int>, peak_row <dbl>, peak_col <dbl>, peak_elev <dbl>,
    #   z2peak <dbl>, n2peak <dbl>, elev <dbl>, row <dbl>, col <dbl>, buffer <lgl>,
    #   fill_shed <dbl>, min_elev <dbl>, max_elev <dbl>, elev_range <dbl>,
    #   max_elev_shed <dbl>, zpit2peak <dbl>, zcr2st <dbl>, zcr2pit <dbl>,
    #   z2top <dbl>, ztop2pit <dbl>, ncr2st <dbl>, pctz2top <dbl>, pctz2st <dbl>,
    #   pctz2pit <dbl>, pctn2st <dbl>, pmin2max <dbl>, l2pit <dbl>, l2peak <dbl>,
    #   l2str <dbl>, l2div <dbl>, lpit2peak <dbl>, lstr2div <dbl>,
…
