Test - AB provost site Normal • LITAP
…
## Not all DrainsTo the same

## Out Rec not all the same, but all within 1 cell

## Out elev not all the same, but within 0.01

All values close if not identical

Pit and Shed areas off by a small amount, eads to small differences in pit volume and varatio

Drains too different in that all match except those in the original that are assigned zero?

ipit[c$DrainsTo, ] %>% select(ShedNo, PourElev, PitRec, OutRec, DrainsTo)

## # A tibble: 21 x 5
##    ShedNo PourElev PitRec OutRec DrainsTo
##     <dbl>    <dbl>  <int>  <int>    <dbl>
##  1      2   15.425  34222  34226        3
##  2      3   10.246  34270  34273        9
##  3      6    9.167  31330  29462        5
##  4      9   10.246  34290  34272        3
##  5     10    7.572  22594  25586        7
##  6     11    0.851   9805  11673        1
##  7     12    3.384     43     54       37
##  8     13    7.561   6559   6002       11
##  9     17    8.432  34382  34199       20
## 10     18    2.297  16264  15508       21
## # ... with 11 more rows

orig_ipit[c$DrainsTo, ] %>% select(ShedNo, PourElev, PitRec, OutRec, DrainsTo)

## # A tibble: 21 x 5
##    ShedNo PourElev PitRec OutRec DrainsTo
##     <int>    <dbl>  <int>  <int>    <int>
##  1      2   15.425  34222  34226        0
##  2      3   10.246  34271  34273        0
##  3      6    9.167  31330  29462        0
##  4      9   10.246  34290  34272        0
##  5     10    7.572  22781  25586        0
##  6     11    0.851   9805  11673        0
##  7     12    3.384     43     54        0
##  8     13    7.561   6559   6002        0
##  9     17    8.432  34383  34386        0
## 10     18    2.297  16264  15508        0
## # ... with 11 more rows
…
