Test - NB Field edge site 4 - Normal Run • LITAP
…
Original vs. New differences in Shed Area

orig_ipit[c$ShedArea, ] %>% select(ShedNo, ShedArea, PitArea, PitVol, Varatio)

## # A tibble: 24 x 5
##    ShedNo ShedArea PitArea  PitVol Varatio
##     <int>    <int>   <int>   <dbl>   <dbl>
##  1      3     3122     119  42.794   13.71
##  2      7    53333     243  36.813    0.69
##  3      8      859     150  28.274   32.91
##  4      9      170      39   0.267    1.57
##  5     11     1980     155   5.604    2.83
##  6     12    20435     166  16.644    0.81
##  7     13     4270       8   0.103    0.02
##  8     16    46430       8   0.084    0.00
##  9     17     7527     715 112.143   14.90
## 10     18     1797     197  79.025   43.98
## # ... with 14 more rows

ipit[c$ShedArea, ] %>% select(ShedNo, ShedArea, PitArea, PitVol, Varatio)

## # A tibble: 24 x 5
##    ShedNo ShedArea PitArea  PitVol Varatio
##     <int>    <int>   <int>   <dbl>   <dbl>
##  1      3     3130     167  49.444   15.80
##  2      7    53322     243  40.165    0.75
##  3      8      855     150  28.274   33.07
##  4      9      166      39   0.293    1.76
##  5     11     1975     155   5.845    2.96
##  6     12    20440     166  16.872    0.83
##  7     13     4262       8   0.103    0.02
##  8     16    46427       8   0.084    0.00
##  9     17     7524     715 112.143   14.90
## 10     18     1795     197  83.680   46.62
## # ... with 14 more rows
…
