Combine flow and form output dems — merge_flow_form • LITAP
…
# Then run form_mapper()
form_mapper(folder = "./testELEV/", grid = 5)

#> SETUP
#> CALCULATING FORM
#> CALCULATING WETNESS INDICES
#> CALCULATING RELIEF DERIVITIVES
#> CALCULATING SLOPE LENGTH
#> Run took: 0.1 min

# Now merge together
merge_flow_form(folder = "./testELEV")

#> # A tibble: 8,100 x 106
#>    shedno seqno_buffer ridge  elev drec_buffer seqno_shed drec_shed upslope
#>     <dbl>        <int> <lgl> <dbl>       <int>      <int>     <int>   <dbl>
#>  1     11           94 TRUE   680.          95          1         2       1
#>  2     11           95 TRUE   680.          96          2         3       2
#>  3     11           96 FALSE  680.          97          3         4       3
#>  4     11           97 FALSE  680.          98          4         5       4
#>  5     11           98 FALSE  680.          99          5         6       5
#>  6     11           99 FALSE  680.         100          6         7       6
#>  7     11          100 FALSE  679.         101          7         8       7
#>  8     11          101 FALSE  679.         102          8         9       8
#>  9     11          102 FALSE  679.         103          9        10       9
#> 10     11          103 FALSE  679.         104         10        11      10
#> # … with 8,090 more rows, and 98 more variables: initial_shed <dbl>, row <dbl>,
#> #   col <dbl>, missing <lgl>, buffer <lgl>, elev_orig <dbl>, edge_map <lgl>,
#> #   ddir <dbl>, flatcell <lgl>, vol2fl <dbl>, mm2fl <dbl>, parea <int>,
#> #   elev_diff <dbl>, local_shed <dbl>, local_ddir <dbl>, local_elev_diff <dbl>,
#> #   pond_shed <dbl>, fill_shed <dbl>, sgre <dbl>, sgr <dbl>, sgcn <dbl>,
#> #   sgc <dbl>, scr <dbl>, scc <dbl>, hill_r_dir <dbl>, hill_c_dir <dbl>,
#> #   hill_r_n <dbl>, hill_r_cell <int>, hill_c_n <dbl>, hill_c_cell <int>,
#> #   seqno <int>, drec <int>, slope_pct <dbl>, slope_deg <dbl>, aspect <dbl>,
#> #   prof <dbl>, plan <dbl>, str_row <dbl>, str_col <dbl>, str_elev <dbl>,
…
